…
    ## Warning: One or more parsing issues, call `problems()` on your data frame for details,
    ## e.g.:
    ##   dat <- vroom(...)
    ##   problems(dat)

The code chunk above reports a warning about some parsing errors. So
let’s investigate with `problems()`.

``` r
problems(FF3)
```

    ## # A tibble: 105 × 5
    ##      row   col expected       actual                           file             
    ##    <int> <int> <chr>          <chr>                            <chr>            
    ##  1  1174     1 5 columns      1 columns                        C:/Users/tdrgv/P…
    ##  2  1174     1 date like %Y%m Annual Factors: January-December C:/Users/tdrgv/P…
    ##  3  1175     2 a double       Mkt-RF                           C:/Users/tdrgv/P…
    ##  4  1175     3 a double       SMB                              C:/Users/tdrgv/P…
    ##  5  1175     4 a double       HML                              C:/Users/tdrgv/P…
    ##  6  1175     5 a double       RF                               C:/Users/tdrgv/P…
    ##  7  1176     1 date like %Y%m 1927                             C:/Users/tdrgv/P…
    ##  8  1177     1 date like %Y%m 1928                             C:/Users/tdrgv/P…
    ##  9  1178     1 date like %Y%m 1929                             C:/Users/tdrgv/P…
    ## 10  1179     1 date like %Y%m 1930                             C:/Users/tdrgv/P…
    ## # ℹ 95 more rows
…
